<svg xmlns="http://www.w3.org/2000/svg" width="600" height="200" viewBox="0 0 300 100" class="{{ include.class }}">
  <!-- original curve -->
  <polyline points="20,20 30,50 70,74 109,49 154,33 178,37 220,65 280,20" fill="none" stroke-width="2" stroke-dasharray="3,3" stroke="#343a40"/>
  <g fill="#fff" stroke-width="1.5" stroke="#343a40">
    <circle cx="20" cy="20" r="2"/>
    <circle cx="30" cy="50" r="2"/>
    <circle cx="70" cy="74" r="2"/>
    <circle cx="109" cy="49" r="2"/>
    <circle cx="154" cy="33" r="2"/>
    <circle cx="178" cy="37" r="2"/>
    <circle cx="220" cy="65" r="2"/>
    <circle cx="280" cy="20" r="2"/>
  </g>
  <!-- simplified curve -->
  <polyline points="20,20 70,74 154,33 220,65 280,20" fill="none" stroke-width="2" stroke="#0065bd"/>
  <g fill="#fff" stroke-width="1.5" stroke="#0065bd">
    <circle cx="20" cy="20" r="2"/>
    <circle cx="70" cy="74" r="2"/>
    <circle cx="154" cy="33" r="2"/>
    <circle cx="220" cy="65" r="2"/>
    <circle cx="280" cy="20" r="2"/>
  </g>
</svg>
